%YAML 1.1
%TAG !u! tag:unity3d.com,2011:
--- !u!114 &11400000
MonoBehaviour:
  m_ObjectHideFlags: 0
  m_CorrespondingSourceObject: {fileID: 0}
  m_PrefabInstance: {fileID: 0}
  m_PrefabAsset: {fileID: 0}
  m_GameObject: {fileID: 0}
  m_Enabled: 1
  m_EditorHideFlags: 0
  m_Script: {fileID: 639610786, guid: 9195dc42b802fc843ada5bdc84683499, type: 3}
  m_Name: AssetManager
  m_EditorClassIdentifier: 
  mTables:
  - tableName: MeepSkin
    createdId: 10
    column:
    - name: SkinName
      type: 0
    realDatas:
    - rowId: 1
      columnName: SkinName
      data: Blush
      dataObject: {fileID: 0}
    - rowId: 2
      columnName: SkinName
      data: BM
      dataObject: {fileID: 0}
    - rowId: 3
      columnName: SkinName
      data: Coastal
      dataObject: {fileID: 0}
    - rowId: 4
      columnName: SkinName
      data: Haiku
      dataObject: {fileID: 0}
    - rowId: 5
      columnName: SkinName
      data: Lime
      dataObject: {fileID: 0}
    - rowId: 6
      columnName: SkinName
      data: PF
      dataObject: {fileID: 0}
    - rowId: 7
      columnName: SkinName
      data: SB
      dataObject: {fileID: 0}
    - rowId: 8
      columnName: SkinName
      data: Starboy
      dataObject: {fileID: 0}
    - rowId: 9
      columnName: SkinName
      data: Tangy
      dataObject: {fileID: 0}
    - rowId: 10
      columnName: SkinName
      data: WW
      dataObject: {fileID: 0}
  _generatePath: Scripts/Models
  _namespaceModel: Ensign.Model
