%YAML 1.1
%TAG !u! tag:unity3d.com,2011:
--- !u!74 &7400000
AnimationClip:
  m_ObjectHideFlags: 0
  m_CorrespondingSourceObject: {fileID: 0}
  m_PrefabInstance: {fileID: 0}
  m_PrefabAsset: {fileID: 0}
  m_Name: Explosion
  serializedVersion: 6
  m_Legacy: 0
  m_Compressed: 0
  m_UseHighQualityCurve: 1
  m_RotationCurves: []
  m_CompressedRotationCurves: []
  m_EulerCurves: []
  m_PositionCurves: []
  m_ScaleCurves: []
  m_FloatCurves: []
  m_PPtrCurves:
  - curve:
    - time: 0
      value: {fileID: -8407936732828076587, guid: 10fbd12f80ea92f4a80446fa21417a0c, type: 3}
    - time: 0.016666668
      value: {fileID: -6141200405887911380, guid: 10fbd12f80ea92f4a80446fa21417a0c, type: 3}
    - time: 0.05
      value: {fileID: -4646681281559727906, guid: 10fbd12f80ea92f4a80446fa21417a0c, type: 3}
    - time: 0.083333336
      value: {fileID: -1855412555220528331, guid: 10fbd12f80ea92f4a80446fa21417a0c, type: 3}
    - time: 0.11666667
      value: {fileID: 3813875315977039612, guid: 10fbd12f80ea92f4a80446fa21417a0c, type: 3}
    - time: 0.13333334
      value: {fileID: -7772978175828939346, guid: 10fbd12f80ea92f4a80446fa21417a0c, type: 3}
    - time: 0.18333334
      value: {fileID: -4958465548361617187, guid: 10fbd12f80ea92f4a80446fa21417a0c, type: 3}
    - time: 0.21666667
      value: {fileID: 6419921830616143446, guid: 10fbd12f80ea92f4a80446fa21417a0c, type: 3}
    - time: 0.23333333
      value: {fileID: -1403666806338709004, guid: 10fbd12f80ea92f4a80446fa21417a0c, type: 3}
    - time: 0.26666668
      value: {fileID: -7899779541360237711, guid: 10fbd12f80ea92f4a80446fa21417a0c, type: 3}
    - time: 0.31666666
      value: {fileID: -8600475305965883296, guid: 10fbd12f80ea92f4a80446fa21417a0c, type: 3}
    - time: 0.33333334
      value: {fileID: -6753354377763928518, guid: 10fbd12f80ea92f4a80446fa21417a0c, type: 3}
    - time: 0.36666667
      value: {fileID: -4136354113214128478, guid: 10fbd12f80ea92f4a80446fa21417a0c, type: 3}
    - time: 0.4
      value: {fileID: -2016826014148007231, guid: 10fbd12f80ea92f4a80446fa21417a0c, type: 3}
    - time: 0.43333334
      value: {fileID: -7514717614688481810, guid: 10fbd12f80ea92f4a80446fa21417a0c, type: 3}
    - time: 0.46666667
      value: {fileID: 4654349135042140284, guid: 10fbd12f80ea92f4a80446fa21417a0c, type: 3}
    - time: 0.5
      value: {fileID: -8401455837267762085, guid: 10fbd12f80ea92f4a80446fa21417a0c, type: 3}
    attribute: m_Sprite
    path: 
    classID: 212
    script: {fileID: 0}
  m_SampleRate: 60
  m_WrapMode: 0
  m_Bounds:
    m_Center: {x: 0, y: 0, z: 0}
    m_Extent: {x: 0, y: 0, z: 0}
  m_ClipBindingConstant:
    genericBindings:
    - serializedVersion: 2
      path: 0
      attribute: 0
      script: {fileID: 0}
      typeID: 212
      customType: 23
      isPPtrCurve: 1
    pptrCurveMapping:
    - {fileID: -8407936732828076587, guid: 10fbd12f80ea92f4a80446fa21417a0c, type: 3}
    - {fileID: -6141200405887911380, guid: 10fbd12f80ea92f4a80446fa21417a0c, type: 3}
    - {fileID: -4646681281559727906, guid: 10fbd12f80ea92f4a80446fa21417a0c, type: 3}
    - {fileID: -1855412555220528331, guid: 10fbd12f80ea92f4a80446fa21417a0c, type: 3}
    - {fileID: 3813875315977039612, guid: 10fbd12f80ea92f4a80446fa21417a0c, type: 3}
    - {fileID: -7772978175828939346, guid: 10fbd12f80ea92f4a80446fa21417a0c, type: 3}
    - {fileID: -4958465548361617187, guid: 10fbd12f80ea92f4a80446fa21417a0c, type: 3}
    - {fileID: 6419921830616143446, guid: 10fbd12f80ea92f4a80446fa21417a0c, type: 3}
    - {fileID: -1403666806338709004, guid: 10fbd12f80ea92f4a80446fa21417a0c, type: 3}
    - {fileID: -7899779541360237711, guid: 10fbd12f80ea92f4a80446fa21417a0c, type: 3}
    - {fileID: -8600475305965883296, guid: 10fbd12f80ea92f4a80446fa21417a0c, type: 3}
    - {fileID: -6753354377763928518, guid: 10fbd12f80ea92f4a80446fa21417a0c, type: 3}
    - {fileID: -4136354113214128478, guid: 10fbd12f80ea92f4a80446fa21417a0c, type: 3}
    - {fileID: -2016826014148007231, guid: 10fbd12f80ea92f4a80446fa21417a0c, type: 3}
    - {fileID: -7514717614688481810, guid: 10fbd12f80ea92f4a80446fa21417a0c, type: 3}
    - {fileID: 4654349135042140284, guid: 10fbd12f80ea92f4a80446fa21417a0c, type: 3}
    - {fileID: -8401455837267762085, guid: 10fbd12f80ea92f4a80446fa21417a0c, type: 3}
  m_AnimationClipSettings:
    serializedVersion: 2
    m_AdditiveReferencePoseClip: {fileID: 0}
    m_AdditiveReferencePoseTime: 0
    m_StartTime: 0
    m_StopTime: 0.51666665
    m_OrientationOffsetY: 0
    m_Level: 0
    m_CycleOffset: 0
    m_HasAdditiveReferencePose: 0
    m_LoopTime: 1
    m_LoopBlend: 0
    m_LoopBlendOrientation: 0
    m_LoopBlendPositionY: 0
    m_LoopBlendPositionXZ: 0
    m_KeepOriginalOrientation: 0
    m_KeepOriginalPositionY: 1
    m_KeepOriginalPositionXZ: 0
    m_HeightFromFeet: 0
    m_Mirror: 0
  m_EditorCurves: []
  m_EulerEditorCurves: []
  m_HasGenericRootTransform: 0
  m_HasMotionFloatCurves: 0
  m_Events: []
